…
The result of the operation is a `tibble` which contains data and
metadata. The first six columns contain the metadata: satellite, sensor,
spatial and temporal information, and the coverage from where the data
has been extracted. The spatial location is given in longitude and
latitude coordinates for the “WGS84” ellipsoid. The `time_series` column
contains the time series data for each spatiotemporal location. This
data is also organized as a tibble, with a column with the dates and the
other columns with the values for each spectral band.

``` r
# Showing the contents of a time series
ts$time_series[[1]]
```

    ## # A tibble: 388 x 3
    ##    Index       ndvi   evi
    ##    <date>     <dbl> <dbl>
    ##  1 2000-02-18 0.374 0.302
    ##  2 2000-03-05 0.820 0.497
    ##  3 2000-03-21 0.802 0.481
    ##  4 2000-04-06 0.809 0.432
    ##  5 2000-04-22 0.749 0.409
    ##  6 2000-05-08 0.727 0.394
    ##  7 2000-05-24 0.698 0.374
    ##  8 2000-06-09 0.654 0.325
    ##  9 2000-06-25 0.608 0.310
    ## 10 2000-07-11 0.583 0.291
    ## # … with 378 more rows
…
